…
## 3\. Data analysis plan

We first began by exploring the overall average ratings of the different
airlines.

``` r
airline %>%
  group_by(airline_name) %>%
  summarise( average_overall_rating = mean(overall_rating, na.rm = TRUE)) %>%
  arrange(desc(average_overall_rating))
```

    ## `summarise()` ungrouping output (override with `.groups` argument)

    ## # A tibble: 362 x 2
    ##    airline_name             average_overall_rating
    ##    <chr>                                     <dbl>
    ##  1 beijing-capital-airlines                  10   
    ##  2 danish-air                                10   
    ##  3 eastarjet                                 10   
    ##  4 la-compagnie                              10   
    ##  5 loganair                                  10   
    ##  6 air-busan                                  9.45
    ##  7 atlantic-airways                           9.25
    ##  8 avianca-brasil                             9   
    ##  9 europe-airpost                             9   
    ## 10 jeju-air                                   9   
    ## # … with 352 more rows
…
First, all NAs for the response variable and the predictor were removed.

``` r
airline_nonas <- airline %>%
  drop_na(overall_rating) #removing any NAs
```

Next, we want to investigate how time affects ratings. As the research
question focuses on how airlines get high ratings, the five airlines
with the highest rating were found. A limit of at least 100 survey
submissions was imposed to increase the number of data points.

    ## # A tibble: 106 x 3
    ##    airline_name       mean_overall_rating     n
    ##    <chr>                            <dbl> <int>
    ##  1 asiana-airlines                   8.35   301
    ##  2 garuda-indonesia                  8.31   351
    ##  3 air-astana                        8.28   103
    ##  4 bangkok-airways                   8.12   213
    ##  5 indigo-airlines                   8.08   104
    ##  6 korean-air                        8.03   315
    ##  7 eva-air                           7.98   296
    ##  8 aegean-airlines                   7.82   227
    ##  9 singapore-airlines                7.77   432
    ## 10 airasia-x                         7.71   246
    ## # … with 96 more rows
…
``` r
airline_lounge <- full_join(lounge_rating, airline_rating) %>%
  na.omit()
```

    ## Joining, by = c("airline_name", "author")

``` r
airline_lounge
```

    ## # A tibble: 1,058 x 6
    ##    airline_name lounge_rating author     date_lounge airline_rating date_airline
    ##    <chr>                <dbl> <chr>      <date>               <dbl> <date>      
    ##  1 aer-lingus               4 Alan Wan   2014-10-28               7 2014-10-31  
    ##  2 aer-lingus               2 Sean Leon… 2013-11-15               9 2015-01-14  
    ##  3 aer-lingus               2 Sean Leon… 2013-11-15               5 2013-10-16  
    ##  4 aer-lingus               2 Sean Leon… 2013-11-15               9 2013-01-22  
    ##  5 aer-lingus               3 F Hogan    2013-04-04               6 2013-04-01  
    ##  6 aer-lingus               4 Alan Wan   2012-09-10               7 2014-10-31  
    ##  7 aer-lingus               3 Alan Wan   2012-09-10               7 2014-10-31  
    ##  8 aer-lingus               4 Patrick J… 2011-09-13              10 2013-03-21  
    ##  9 aer-lingus               2 Patrick J… 2009-03-18              10 2013-03-21  
    ## 10 aer-lingus               2 Patrick J… 2009-03-18              10 2013-03-21  
    ## # … with 1,048 more rows

``` r
airline_lounge_seat <- full_join(airline_lounge, seat_rating) %>%
  na.omit()
```

    ## Joining, by = c("airline_name", "author")

``` r
airline_lounge_seat <- airline_lounge_seat[, c(1, 3, 5, 2, 7, 4, 6, 8)]

airline_lounge_seat
```

    ## # A tibble: 81 x 8
    ##    airline_name author airline_rating lounge_rating seat_rating date_lounge
    ##    <chr>        <chr>           <dbl>         <dbl>       <dbl> <date>     
    ##  1 air-france   C Waj…              2             4           3 2014-03-11 
    ##  2 air-france   C Waj…              3             4           3 2014-03-11 
    ##  3 air-france   C Waj…              9             4           3 2014-03-11 
    ##  4 air-france   C Waj…              2             3           3 2013-12-23 
    ##  5 air-france   C Waj…              3             3           3 2013-12-23 
    ##  6 air-france   C Waj…              9             3           3 2013-12-23 
    ##  7 air-france   C Waj…              2             4           3 2013-05-29 
    ##  8 air-france   C Waj…              3             4           3 2013-05-29 
    ##  9 air-france   C Waj…              9             4           3 2013-05-29 
    ## 10 air-france   C Waj…              2             3           3 2012-09-10 
    ## # … with 71 more rows, and 2 more variables: date_airline <date>,
    ## #   date_seat <date>
…
als_overall_rating
```

    ## # A tibble: 75 x 5
    ##    airline_name author     rating_type    overall_rating date      
    ##    <chr>        <chr>      <chr>                   <dbl> <date>    
    ##  1 air-france   C Wajsberg airline_rating              2 2014-05-05
    ##  2 air-france   C Wajsberg seat_rating                 3 2014-01-10
    ##  3 air-france   C Wajsberg lounge_rating               4 2014-03-11
    ##  4 air-france   C Wajsberg airline_rating              3 2014-04-21
    ##  5 air-france   C Wajsberg airline_rating              9 2013-10-22
    ##  6 air-france   C Wajsberg lounge_rating               3 2013-12-23
    ##  7 air-france   C Wajsberg lounge_rating               4 2013-05-29
    ##  8 air-france   C Wajsberg lounge_rating               3 2012-09-10
    ##  9 air-france   C Wajsberg lounge_rating               3 2012-01-30
    ## 10 air-france   C Wajsberg lounge_rating               2 2012-01-25
    ## # … with 65 more rows
Next the mean is calculated for each type of rating for each author as
some authors have provided multiple ratings for each type. Then any
duplicates were removed.

``` r
als_with_mean <- als_overall_rating %>%
  group_by(author, rating_type) %>%
  mutate(mean_overall_rating = mean(overall_rating)) %>%
  select(airline_name, author, rating_type, mean_overall_rating) %>%
  distinct()

als_with_mean
```

    ## # A tibble: 39 x 4
    ## # Groups:   author, rating_type [39]
    ##    airline_name           author     rating_type    mean_overall_rating
    ##    <chr>                  <chr>      <chr>                        <dbl>
    ##  1 air-france             C Wajsberg airline_rating                4.67
    ##  2 air-france             C Wajsberg seat_rating                   3   
    ##  3 air-france             C Wajsberg lounge_rating                 3.17
    ##  4 asiana-airlines        J Min      airline_rating                8.92
    ##  5 asiana-airlines        J Min      seat_rating                  10   
    ##  6 asiana-airlines        J Min      lounge_rating                 4   
    ##  7 british-airways        B Harrison airline_rating                2   
    ##  8 british-airways        B Harrison seat_rating                   2   
    ##  9 british-airways        B Harrison lounge_rating                 1   
    ## 10 cathay-pacific-airways S Howard   airline_rating                9.57
    ## # … with 29 more rows
…
