How do the amenities offered impact the flight’s overall rating?
…
Out of all travelers (for whom we do have observations), least number of them chose to fly in the first class cabin. 

---

Let's look into which amenities the first class cabin passengers mentioned the most about in their comments and how did they rate them? 

```
## # A tibble: 65 x 2
##    word            n
##    <chr>       <int>
##  1 first class   936
##  2 on the        386
##  3 of the        314
##  4 in the        306
##  5 in first      274
##  6 the flight    271
##  7 to the        271
##  8 and the       261
##  9 i was         257
## 10 it was        200
## # … with 55 more rows
```
…
